<svg width="16" height="16" viewBox="0 0 16 16" fill="none" xmlns="http://www.w3.org/2000/svg">
<path d="M9.5333 8.11969C9.51778 8.10421 9.50546 8.08581 9.49706 8.06557C9.48866 8.04532 9.48433 8.02361 9.48433 8.00169C9.48433 7.97977 9.48866 7.95806 9.49706 7.93781C9.50546 7.91756 9.51778 7.89917 9.5333 7.88369L15.7086 1.70902C15.8961 1.52125 16.0014 1.26668 16.0012 1.00131C16.001 0.73595 15.8954 0.481529 15.7076 0.294021C15.5199 0.106513 15.2653 0.00127756 14.9999 0.00146509C14.7346 0.00165263 14.4801 0.107248 14.2926 0.295021L8.11796 6.46702C8.10248 6.48254 8.08409 6.49486 8.06384 6.50326C8.04359 6.51166 8.02188 6.51599 7.99996 6.51599C7.97804 6.51599 7.95633 6.51166 7.93608 6.50326C7.91584 6.49486 7.89744 6.48254 7.88196 6.46702L1.7073 0.295021C1.61445 0.202133 1.50422 0.128441 1.3829 0.0781536C1.26157 0.027866 1.13153 0.00196744 1.0002 0.00193648C0.734959 0.00187397 0.480559 0.10718 0.292963 0.294688C0.105366 0.482196 -5.95304e-05 0.736547 -0.000122042 1.00179C-0.000184555 1.26702 0.105121 1.52142 0.292629 1.70902L6.46663 7.88369C6.48215 7.89917 6.49446 7.91756 6.50287 7.93781C6.51127 7.95806 6.51559 7.97977 6.51559 8.00169C6.51559 8.02361 6.51127 8.04532 6.50287 8.06557C6.49446 8.08581 6.48215 8.10421 6.46663 8.11969L0.292629 14.295C0.199785 14.3879 0.126145 14.4982 0.0759147 14.6195C0.0256843 14.7409 -0.000152995 14.8709 -0.000122042 15.0023C-5.95304e-05 15.2675 0.105366 15.5218 0.292963 15.7094C0.385851 15.8022 0.496117 15.8758 0.617465 15.9261C0.738812 15.9763 0.868865 16.0021 1.0002 16.0021C1.26544 16.002 1.51979 15.8966 1.7073 15.709L7.88196 9.53369C7.89744 9.51817 7.91584 9.50585 7.93608 9.49745C7.95633 9.48905 7.97804 9.48472 7.99996 9.48472C8.02188 9.48472 8.04359 9.48905 8.06384 9.49745C8.08409 9.50585 8.10248 9.51817 8.11796 9.53369L14.2926 15.709C14.4801 15.8966 14.7345 16.002 14.9997 16.0021C15.265 16.0022 15.5194 15.8969 15.707 15.7094C15.8946 15.5218 16 15.2675 16 15.0023C16.0001 14.737 15.8948 14.4826 15.7073 14.295L9.5333 8.11969Z" fill="#CCCCCC"/>
</svg>
