<svg width="70" height="38" viewBox="0 0 70 38" fill="none" xmlns="http://www.w3.org/2000/svg">
<path d="M4.83699 37.9998C3.85168 37.9998 2.99177 37.7939 2.25726 37.3821C1.53171 36.9703 0.971877 36.3892 0.577752 35.6389C0.192584 34.8885 0 34.0192 0 33.0309C0 32.0426 0.192584 31.1778 0.577752 30.4366C0.971877 29.6862 1.53171 29.1052 2.25726 28.6934C2.99177 28.2816 3.85168 28.0757 4.83699 28.0757C5.45505 28.0757 6.05072 28.1718 6.62399 28.3639C7.20622 28.5561 7.68096 28.8123 8.04821 29.1326L7.28236 30.917C6.50306 30.3588 5.70586 30.0797 4.89073 30.0797C4.1204 30.0797 3.52921 30.3268 3.11717 30.8209C2.71409 31.3151 2.51255 32.0517 2.51255 33.0309C2.51255 34.01 2.71409 34.7512 3.11717 35.2545C3.52921 35.7487 4.1204 35.9957 4.89073 35.9957C5.70586 35.9957 6.50306 35.7166 7.28236 35.1584L8.04821 36.9429C7.68096 37.2631 7.20622 37.5194 6.62399 37.7115C6.05072 37.9037 5.45505 37.9998 4.83699 37.9998Z" fill="white"/>
<path d="M14.3109 37.9998C13.3435 37.9998 12.5015 37.7985 11.7849 37.3958C11.0773 36.984 10.5309 36.4075 10.1457 35.6663C9.76054 34.9159 9.56796 34.0375 9.56796 33.0309C9.56796 32.0243 9.76054 31.1504 10.1457 30.4092C10.5309 29.6588 11.0773 29.0823 11.7849 28.6796C12.5015 28.277 13.3435 28.0757 14.3109 28.0757C15.2783 28.0757 16.1158 28.277 16.8234 28.6796C17.54 29.0823 18.0864 29.6588 18.4626 30.4092C18.8478 31.1504 19.0404 32.0243 19.0404 33.0309C19.0404 34.0375 18.8478 34.9159 18.4626 35.6663C18.0775 36.4075 17.5266 36.984 16.81 37.3958C16.1024 37.7985 15.2693 37.9998 14.3109 37.9998ZM14.3109 36.0644C15.0275 36.0644 15.5873 35.8082 15.9904 35.2957C16.3935 34.7741 16.595 34.0192 16.595 33.0309C16.595 32.0426 16.389 31.2922 15.977 30.7798C15.5739 30.2673 15.0185 30.0111 14.3109 30.0111C13.5943 30.0111 13.0345 30.2673 12.6314 30.7798C12.2283 31.2831 12.0268 32.0334 12.0268 33.0309C12.0268 34.0283 12.2283 34.7833 12.6314 35.2957C13.0345 35.8082 13.5943 36.0644 14.3109 36.0644Z" fill="white"/>
<path d="M21.1754 28.1992H25.0315C26.0795 28.1992 26.9798 28.3914 27.7322 28.7757C28.4936 29.1601 29.0758 29.7183 29.4789 30.4503C29.882 31.1732 30.0835 32.0334 30.0835 33.0309C30.0835 34.0375 29.882 34.9068 29.4789 35.6389C29.0847 36.3618 28.507 36.9154 27.7456 37.2997C26.9932 37.6841 26.0885 37.8762 25.0315 37.8762H21.1754V28.1992ZM24.8569 35.8448C25.7884 35.8448 26.4826 35.6114 26.9395 35.1447C27.3963 34.678 27.6247 33.9734 27.6247 33.0309C27.6247 32.0883 27.3963 31.3883 26.9395 30.9307C26.4826 30.4641 25.7884 30.2307 24.8569 30.2307H23.6476V35.8448H24.8569Z" fill="white"/>
<path d="M32.2391 28.1992H38.9706V30.1484H34.6442V31.9877H38.7019V33.9231H34.6442V35.9271H38.9706V37.8762H32.2391V28.1992Z" fill="white"/>
<path d="M44.223 37.9998C43.5153 37.9998 42.8167 37.9037 42.1269 37.7115C41.4372 37.5194 40.8774 37.2631 40.4474 36.9429L41.2133 35.1584C41.6701 35.4513 42.1583 35.6755 42.6778 35.831C43.1974 35.9866 43.7214 36.0644 44.2498 36.0644C44.7873 36.0644 45.1949 35.9912 45.4725 35.8448C45.7592 35.6892 45.9025 35.4741 45.9025 35.1996C45.9025 34.9525 45.7726 34.7512 45.5128 34.5957C45.262 34.4401 44.7783 34.2845 44.0617 34.129C43.175 33.9368 42.4808 33.708 41.9791 33.4427C41.4775 33.1773 41.1237 32.8662 40.9177 32.5093C40.7206 32.1524 40.6221 31.7131 40.6221 31.1915C40.6221 30.5967 40.7833 30.066 41.1058 29.5993C41.4372 29.1235 41.8985 28.7528 42.4897 28.4875C43.0899 28.2129 43.7751 28.0757 44.5454 28.0757C45.2262 28.0757 45.8846 28.1763 46.5205 28.3777C47.1655 28.5698 47.6671 28.8215 48.0254 29.1326L47.273 30.917C46.4131 30.3131 45.5084 30.0111 44.5589 30.0111C44.1021 30.0111 43.7348 30.1026 43.4571 30.2856C43.1794 30.4595 43.0406 30.6928 43.0406 30.9857C43.0406 31.1595 43.0899 31.3014 43.1884 31.4112C43.2869 31.521 43.4706 31.6308 43.7393 31.7406C44.008 31.8413 44.4066 31.9465 44.9351 32.0563C45.795 32.2485 46.4713 32.4818 46.9639 32.7563C47.4566 33.0217 47.8059 33.3328 48.012 33.6897C48.218 34.0466 48.321 34.4721 48.321 34.9663C48.321 35.918 47.9627 36.6638 47.2461 37.2037C46.5295 37.7344 45.5218 37.9998 44.223 37.9998Z" fill="white"/>
<path d="M56.6791 37.8762L52.8632 33.4976V37.8762H50.391V28.1992H52.8632V32.3583L56.5716 28.1992H59.4603L55.2817 32.7975L59.6081 37.8762H56.6791Z" fill="white"/>
<path d="M66.7082 35.8722H62.5161L61.6696 37.8762H59.1839L63.6044 28.1992H65.5661L70 37.8762H67.5546L66.7082 35.8722ZM65.9154 33.978L64.6121 30.8758L63.3088 33.978H65.9154Z" fill="white"/>
<path fill-rule="evenodd" clip-rule="evenodd" d="M31.8679 10.7978V5.79353L39.455 0V5.02001L32.1306 10.6083L31.8679 10.7978ZM48.6183 10.7978V5.79353L41.0466 0V5.02001L48.3711 10.6083L48.6183 10.7978Z" fill="white" fill-opacity="0.5"/>
<path d="M22.7405 14.3289V9.32471L23.0032 9.51414L30.3276 15.1182V20.1225L22.7405 14.3289Z" fill="white"/>
<path d="M39.4752 14.3289V9.32471L39.228 9.51414L31.9036 15.1182V20.1225L39.4752 14.3289Z" fill="white"/>
</svg>
