<svg width="28" height="30" viewBox="0 0 28 30" fill="none" xmlns="http://www.w3.org/2000/svg">
<path d="M27.4897 17.6528C27.5022 17.2955 27.183 17.0209 26.9541 16.7522C26.5522 15.1274 25.7556 13.266 24.5993 11.419C22.7451 8.45956 17.8381 3.68814 15.9744 2.95216C15.8804 2.9153 15.7966 2.89449 15.7193 2.87725C15.5332 2.27503 15.4346 1.86185 14.7099 1.37853C12.7159 0.0492377 10.4896 -0.325294 9.0158 0.282874C7.54086 0.891043 6.72164 4.25826 8.30835 5.41039C9.82193 6.51437 12.8164 4.28799 13.7747 5.71299C14.7313 7.1374 15.7877 11.8803 17.5426 14.9116C17.0991 14.851 16.6426 14.8189 16.1711 14.8189C14.1463 14.8189 12.3265 15.4122 11.0406 16.3604C9.94083 14.6441 8.02061 13.5033 5.8305 13.5033C3.55952 13.5033 1.58521 14.7303 0.509766 16.553V29.9999H3.41031L4.02977 28.9007C6.02371 28.1356 8.38147 26.1618 10.0199 24.0573C16.5677 26.6267 27.3429 21.8708 27.4897 17.6528Z" fill="#17C013"/>
</svg>
