<svg width="30" height="30" viewBox="0 0 30 30" fill="none" xmlns="http://www.w3.org/2000/svg">
<path d="M9.27753 17.0842L14.643 12.5829L13.1379 5.22161C11.718 3.83996 9.7921 3.02539 7.73926 3.02539C3.47183 3.02529 0 6.49712 0 10.7646C0 14.2065 1.25464 17.2571 3.94815 20.3652C5.61393 22.2873 9.34721 24.999 11.4245 26.4445C11.8668 26.7522 12.3745 26.927 12.8913 26.9708L8.83877 19.3363C8.43525 18.5762 8.61819 17.6373 9.27753 17.0842Z" fill="#FC4444"/>
<path d="M22.2607 3.02441C20.2074 3.02441 18.2809 3.83939 16.8609 5.22163L18.4339 12.9156C18.568 13.5713 18.332 14.2479 17.8194 14.6781L12.7524 18.929L17.0237 26.9755C17.5697 26.9445 18.1089 26.7683 18.5754 26.4437C20.6524 24.9984 24.3857 22.2868 26.0519 20.3643C28.7454 17.2562 30.0001 14.2056 30.0001 10.7637C30 6.49625 26.5281 3.02441 22.2607 3.02441Z" fill="#FC4444"/>
</svg>
