<svg width="35" height="36" viewBox="0 0 35 36" fill="none" xmlns="http://www.w3.org/2000/svg">
<path d="M32.5 0.5H2.49219C1.11719 0.5 0 1.63281 0 3.02344V32.9766C0 34.3672 1.11719 35.5 2.49219 35.5H32.5C33.875 35.5 35 34.3672 35 32.9766V3.02344C35 1.63281 33.875 0.5 32.5 0.5ZM10.5781 30.5H5.39062V13.7969H10.5859V30.5H10.5781ZM7.98438 11.5156C6.32031 11.5156 4.97656 10.1641 4.97656 8.50781C4.97656 6.85156 6.32031 5.5 7.98438 5.5C9.64062 5.5 10.9922 6.85156 10.9922 8.50781C10.9922 10.1719 9.64844 11.5156 7.98438 11.5156ZM30.0234 30.5H24.8359V22.375C24.8359 20.4375 24.7969 17.9453 22.1406 17.9453C19.4375 17.9453 19.0234 20.0547 19.0234 22.2344V30.5H13.8359V13.7969H18.8125V16.0781H18.8828C19.5781 14.7656 21.2734 13.3828 23.7969 13.3828C29.0469 13.3828 30.0234 16.8438 30.0234 21.3438V30.5Z" fill="#23C1C1"/>
</svg>
